…
#### R

``` r
pathdups <- mampath |>
  group_by(tagID) |>
  filter(n() > 1) |>
  ungroup() |>
  select(tagID, scientificName, 
         collectDate, testPathogenName) |>
  arrange(tagID, collectDate)

head(pathdups, 21)
```

    ## # A tibble: 21 × 4
    ##    tagID              scientificName         collectDate testPathogenName       
    ##    <chr>              <chr>                  <date>      <chr>                  
    ##  1 NEON.MAM.D05.L7097 Zapus hudsonius        2021-06-16  Babesia microti        
    ##  2 NEON.MAM.D05.L7097 Zapus hudsonius        2021-06-16  Anaplasma phagocytophi…
    ##  3 NEON.MAM.D05.L8759 Peromyscus leucopus    2023-09-14  Babesia microti        
    ##  4 NEON.MAM.D05.L8759 Peromyscus leucopus    2023-09-14  Ehrlichia muris-like   
    ##  5 NEON.MAM.D05.R6010 Peromyscus maniculatus 2020-09-23  Ehrlichia muris-like   
    ##  6 NEON.MAM.D05.R6010 Peromyscus maniculatus 2020-09-23  Babesia divergens      
    ##  7 NEON.MAM.D05.R6349 Peromyscus leucopus    2020-07-29  Babesia microti        
    ##  8 NEON.MAM.D05.R6349 Peromyscus leucopus    2020-07-29  Anaplasma phagocytophi…
    ##  9 NEON.MAM.D05.R6540 Peromyscus maniculatus 2020-07-30  Babesia divergens      
    ## 10 NEON.MAM.D05.R6540 Peromyscus maniculatus 2020-07-30  Babesia microti        
    ## # ℹ 11 more rows
…
